112
Lattice="13.2809613516 0.0 0.0 -4.01483547877e-09 13.2809613416 0.0 0.0 -0.0 18.2393370674" Properties=species:S:1:pos:R:3:Z:I:1:magmoms:R:1 unit_cell=conventional pbc="T T F"
S      3.32019204       5.91507609       7.34793572       16       0.02128740 
S      6.64037384       5.91509726       7.49621696       16       0.01345678 
S      1.76505404       4.15021488       5.00010070       16      -0.01220688 
S      4.87550646       4.15008876       5.00000000       16      -0.01222915 
S      4.87542622       0.83014511       5.14810074       16      -0.01087008 
S      1.76497461       0.83027125       5.14820145       16      -0.01087927 
S      0.00004830       2.38552303       7.49579522       16       0.01333573 
S      3.32034718       2.38550269       7.34751284       16       0.02110440 
Co      1.66012104       0.83005979       7.42186445       27      -0.00294952 
Co      4.98035964       0.83005979       7.42186445       27      -0.00294205 
Co      3.32024033       5.81042116       5.07410123       27      -0.22458250 
Co      3.32024034       2.49017966       5.07410082       27      -0.22608910 
Co      0.00000196       4.15151512       6.24711282       27      -1.49865045 
Co      3.32023833       4.14907520       8.59662438       27       1.61127395 
S      6.64048285       2.68588991      12.14534602       16       0.01671737 
S      3.32024377       2.64360983      12.23867027       16      -0.03468854 
S      5.11458497       0.83009422       9.68814402       16       0.00709138 
S      1.52590203       0.83008256       9.68815154       16       0.00708883 
S      1.57756597       4.15021951       9.83841725       16       0.00649446 
S      5.06291022       4.15021153       9.83843280       16       0.00649640 
S      3.32023464       5.65733457      12.23826057       16      -0.03474128 
S     -0.00000436       5.61439637      12.14495222       16       0.01669055 
Co      4.93375994       4.15033922      12.01601326       27      -0.03735725 
Co      1.70672076       4.15034337      12.01598817       27      -0.03734943 
Co      6.64049098       2.54917886       9.78346187       27      -0.06681975 
Co      6.64047186       5.75138967       9.78347776       27      -0.06669625 
Co      3.32025415       0.83030782      11.00331070       27      -2.43823425 
Co      6.64048276       0.82975393      13.20101341       27       2.85934422 
S      3.32019203      12.55555676       7.34793572       16       0.02128740 
S      6.64037384      12.55557793       7.49621696       16       0.01345678 
S      1.76505404      10.79069555       5.00010070       16      -0.01220688 
S      4.87550646      10.79056943       5.00000000       16      -0.01222915 
S      4.87542622       7.47062578       5.14810074       16      -0.01087008 
S      1.76497460       7.47075192       5.14820145       16      -0.01087927 
S      0.00004830       9.02600370       7.49579522       16       0.01333573 
S      3.32034718       9.02598336       7.34751284       16       0.02110440 
Co      1.66012103       7.47054046       7.42186445       27      -0.00294952 
Co      4.98035963       7.47054046       7.42186445       27      -0.00294205 
Co      3.32024033      12.45090184       5.07410123       27      -0.22458250 
Co      3.32024033       9.13066033       5.07410082       27      -0.22608910 
Co      0.00000196      10.79199579       6.24711282       27      -1.49865045 
Co      3.32023832      10.78955587       8.59662438       27       1.61127395 
S      6.64048285       9.32637058      12.14534602       16       0.01671737 
S      3.32024377       9.28409050      12.23867027       16      -0.03468854 
S      5.11458497       7.47057489       9.68814402       16       0.00709138 
S      1.52590203       7.47056323       9.68815154       16       0.00708883 
S      1.57756597      10.79070018       9.83841725       16       0.00649446 
S      5.06291022      10.79069220       9.83843280       16       0.00649640 
S      3.32023463      12.29781524      12.23826057       16      -0.03474128 
S     -0.00000436      12.25487704      12.14495222       16       0.01669055 
Co      4.93375994      10.79081989      12.01601326       27      -0.03735725 
Co      1.70672076      10.79082404      12.01598817       27      -0.03734943 
Co      6.64049097       9.18965953       9.78346187       27      -0.06681975 
Co      6.64047186      12.39187034       9.78347776       27      -0.06669625 
Co      3.32025415       7.47078850      11.00331070       27      -2.43823425 
Co      6.64048276       7.47023460      13.20101341       27       2.85934422 
S      9.96067271       5.91507609       7.34793572       16       0.02128740 
S     13.28085451       5.91509726       7.49621696       16       0.01345678 
S      8.40553471       4.15021488       5.00010070       16      -0.01220688 
S     11.51598714       4.15008876       5.00000000       16      -0.01222915 
S     11.51590690       0.83014511       5.14810074       16      -0.01087008 
S      8.40545528       0.83027125       5.14820145       16      -0.01087927 
S      6.64052897       2.38552303       7.49579522       16       0.01333573 
S      9.96082786       2.38550269       7.34751284       16       0.02110440 
Co      8.30060171       0.83005979       7.42186445       27      -0.00294952 
Co     11.62084031       0.83005979       7.42186445       27      -0.00294205 
Co      9.96072101       5.81042116       5.07410123       27      -0.22458250 
Co      9.96072101       2.49017966       5.07410082       27      -0.22608910 
Co      6.64048264       4.15151512       6.24711282       27      -1.49865045 
Co      9.96071900       4.14907520       8.59662438       27       1.61127395 
S     13.28096353       2.68588991      12.14534602       16       0.01671737 
S      9.96072445       2.64360983      12.23867027       16      -0.03468854 
S     11.75506565       0.83009422       9.68814402       16       0.00709138 
S      8.16638271       0.83008256       9.68815154       16       0.00708883 
S      8.21804665       4.15021951       9.83841725       16       0.00649446 
S     11.70339090       4.15021153       9.83843280       16       0.00649640 
S      9.96071531       5.65733457      12.23826057       16      -0.03474128 
S      6.64047631       5.61439637      12.14495222       16       0.01669055 
Co     11.57424061       4.15033922      12.01601326       27      -0.03735725 
Co      8.34720144       4.15034337      12.01598817       27      -0.03734943 
Co     13.28097165       2.54917886       9.78346187       27      -0.06681975 
Co     13.28095254       5.75138967       9.78347776       27      -0.06669625 
Co      9.96073483       0.83030782      11.00331070       27      -2.43823425 
Co     13.28096344       0.82975393      13.20101341       27       2.85934422 
S      9.96067271      12.55555676       7.34793572       16       0.02128740 
S     13.28085451      12.55557793       7.49621696       16       0.01345678 
S      8.40553471      10.79069555       5.00010070       16      -0.01220688 
S     11.51598713      10.79056943       5.00000000       16      -0.01222915 
S     11.51590690       7.47062578       5.14810074       16      -0.01087008 
S      8.40545528       7.47075192       5.14820145       16      -0.01087927 
S      6.64052897       9.02600370       7.49579522       16       0.01333573 
S      9.96082786       9.02598336       7.34751284       16       0.02110440 
Co      8.30060171       7.47054046       7.42186445       27      -0.00294952 
Co     11.62084031       7.47054046       7.42186445       27      -0.00294205 
Co      9.96072101      12.45090184       5.07410123       27      -0.22458250 
Co      9.96072101       9.13066033       5.07410082       27      -0.22608910 
Co      6.64048264      10.79199579       6.24711282       27      -1.49865045 
Co      9.96071900      10.78955587       8.59662438       27       1.61127395 
S     13.28096353       9.32637058      12.14534602       16       0.01671737 
S      9.96072444       9.28409050      12.23867027       16      -0.03468854 
S     11.75506565       7.47057489       9.68814402       16       0.00709138 
S      8.16638271       7.47056323       9.68815154       16       0.00708883 
S      8.21804664      10.79070018       9.83841725       16       0.00649446 
S     11.70339090      10.79069220       9.83843280       16       0.00649640 
S      9.96071531      12.29781524      12.23826057       16      -0.03474128 
S      6.64047631      12.25487704      12.14495222       16       0.01669055 
Co     11.57424061      10.79081989      12.01601326       27      -0.03735725 
Co      8.34720143      10.79082404      12.01598817       27      -0.03734943 
Co     13.28097165       9.18965953       9.78346187       27      -0.06681975 
Co     13.28095253      12.39187034       9.78347776       27      -0.06669625 
Co      9.96073483       7.47078850      11.00331070       27      -2.43823425 
Co     13.28096344       7.47023460      13.20101341       27       2.85934422 
